[gd_scene load_steps=6 format=2]

[ext_resource path="res://Sprites/FloorSelection/background.png" type="Texture" id=1]
[ext_resource path="res://Fonts/ScrollTheme.theme" type="Theme" id=2]
[ext_resource path="res://Scripts/CreateFloors.gd" type="Script" id=3]
[ext_resource path="res://Sprites/GUI/return_button_metal.png" type="Texture" id=4]
[ext_resource path="res://Sprites/GUI/exit_scroll.png" type="Texture" id=5]

[node name="DungeonFloors" type="Node" index="0"]

[node name="Background" type="Sprite" parent="." index="0"]

texture = ExtResource( 1 )
centered = false
_sections_unfolded = [ "Offset" ]

[node name="ScrollContainer" type="ScrollContainer" parent="." index="1"]

anchor_left = 0.0
anchor_top = 0.0
anchor_right = 0.0
anchor_bottom = 0.0
margin_top = 36.0
margin_right = 144.0
margin_bottom = 256.0
rect_pivot_offset = Vector2( 0, 0 )
rect_clip_content = true
mouse_filter = 1
mouse_default_cursor_shape = 0
size_flags_horizontal = 1
size_flags_vertical = 1
theme = ExtResource( 2 )
scroll_horizontal_enabled = false
scroll_horizontal = 0
scroll_vertical_enabled = true
scroll_vertical = 0
scroll_deadzone = 0
_sections_unfolded = [ "Mouse", "Rect", "Scroll", "Theme" ]
__meta__ = {
"_edit_group_": true
}

[node name="VBoxContainer" type="VBoxContainer" parent="ScrollContainer" index="0"]

anchor_left = 0.0
anchor_top = 0.0
anchor_right = 0.0
anchor_bottom = 0.0
rect_pivot_offset = Vector2( 0, 0 )
rect_clip_content = false
mouse_filter = 1
mouse_default_cursor_shape = 0
size_flags_horizontal = 1
size_flags_vertical = 1
custom_constants/separation = 29
alignment = 0
script = ExtResource( 3 )
_sections_unfolded = [ "Mouse", "Rect", "custom_constants" ]

[node name="LASTEMPTY" type="Control" parent="ScrollContainer/VBoxContainer" index="0"]

anchor_left = 0.0
anchor_top = 0.0
anchor_right = 0.0
anchor_bottom = 0.0
rect_pivot_offset = Vector2( 0, 0 )
rect_clip_content = false
mouse_filter = 0
mouse_default_cursor_shape = 0
size_flags_horizontal = 1
size_flags_vertical = 1

[node name="TextureButton" type="TextureButton" parent="." index="2"]

anchor_left = 0.0
anchor_top = 0.0
anchor_right = 0.0
anchor_bottom = 0.0
margin_left = 114.0
margin_top = 35.0
margin_right = 143.0
margin_bottom = 57.0
rect_pivot_offset = Vector2( 0, 0 )
rect_clip_content = false
focus_mode = 2
mouse_filter = 0
mouse_default_cursor_shape = 0
size_flags_horizontal = 1
size_flags_vertical = 1
toggle_mode = false
enabled_focus_mode = 2
shortcut = null
group = null
texture_normal = ExtResource( 4 )
_sections_unfolded = [ "Rect", "Textures" ]

[node name="ExitScroll" type="Sprite" parent="." index="3"]

position = Vector2( 128, 62 )
texture = ExtResource( 5 )

[connection signal="pressed" from="TextureButton" to="ScrollContainer/VBoxContainer" method="_on_TextureButton_pressed"]


