[gd_scene load_steps=3 format=2]

[ext_resource path="res://Scripts/ShopItem.gd" type="Script" id=1]
[ext_resource path="res://Sprites/Inventory/item_slot.png" type="Texture" id=2]

[node name="ItemSlot" type="Control"]

anchor_left = 0.0
anchor_top = 0.0
anchor_right = 0.0
anchor_bottom = 0.0
margin_right = 32.0
margin_bottom = 32.0
rect_pivot_offset = Vector2( 0, 0 )
rect_clip_content = false
mouse_filter = 2
mouse_default_cursor_shape = 0
size_flags_horizontal = 1
size_flags_vertical = 1
script = ExtResource( 1 )
_sections_unfolded = [ "Mouse", "Rect", "Transform" ]

[node name="Button" type="TextureButton" parent="." index="0"]

anchor_left = 0.0
anchor_top = 0.0
anchor_right = 0.0
anchor_bottom = 0.0
margin_right = 32.0
margin_bottom = 32.0
rect_pivot_offset = Vector2( 0, 0 )
rect_clip_content = false
focus_mode = 2
mouse_filter = 1
mouse_default_cursor_shape = 0
size_flags_horizontal = 3
size_flags_vertical = 3
toggle_mode = false
enabled_focus_mode = 2
shortcut = null
group = null
texture_normal = ExtResource( 2 )
_sections_unfolded = [ "Hint", "Mouse", "Rect", "Size Flags", "Textures" ]

[node name="Sprite" type="Sprite" parent="Button" index="0"]

position = Vector2( 16, 16 )

[connection signal="pressed" from="Button" to="." method="_on_Button_pressed"]


