[gd_resource type="DynamicFont" load_steps=2 format=2]

[ext_resource path="res://Fonts/TinyUnicode.ttf" type="DynamicFontData" id=1]

[resource]

size = 16
use_mipmaps = false
use_filter = false
font_data = ExtResource( 1 )
_sections_unfolded = [ "Extra Spacing", "Font", "Font/fallback", "Settings" ]

